{
    "homepage": "https://docs.microsoft.com/en-us/sysinternals/downloads/ctrl2cap",
    "description": "kernel-mode device driver to convert CapsLock into Ctrl.",

    "version": "2.0",
    "url": "http://download.sysinternals.com/files/Ctrl2Cap.zip",
    "hash": "2d8c06374da140beda79ac1940ab2b06a56a9af182dba70a6338313d768a2ac2",

    "bin": "ctrl2cap.exe",
    "shortcuts": [
        [
            "ctrl2cap.exe",
            "Ctrl2cap"
        ]
    ]
}
