{
    "homepage": "https://github.com/mattn/docx2md",
    "description": "Convert Microsoft Word Document to Markdown",
    "license": "MIT",

    "version": "0.0.4",
    "architecture": {
        "32bit": {
            "url": "https://github.com/mattn/docx2md/releases/download/v0.0.4/docx2md_windows_386.zip",
            "hash": "2c9d34680e61efc308fa32c71d489535e717e98a12a3c0d4e7ec7e889de1ca99"
        },
        "64bit": {
            "url": "https://github.com/mattn/docx2md/releases/download/v0.0.4/docx2md_windows_amd64.zip",
            "hash": "c91f4b65ca34ea3e64a3dba4fa18f01aad84b8134d5afe1f8abb6dad27f280fa"
        }
    },

    "checkver": "github",
    "autoupdate": {
        "32bit": {
            "url": "https://github.com/mattn/docx2md/releases/download/$version/docx2md_windows_386.zip",
            "hash": {
                "url": "$baseurl/docx2md_$match1_checksums.txt",
                "find": "^([a-fA-F0-9]{64}) docx2md_windows_386.zip$"
            }
        },
        "64bit": {
            "url": "https://github.com/mattn/docx2md/releases/download/$version/docx2md_windows_amd64.zip",
            "hash": {
                "url": "$baseurl/docx2md_$match1_checksums.txt",
                "find": "^([a-fA-F0-9]{64}) docx2md_windows_amd64.zip$"
            }
        }
    },

    "bin": "docx2md.exe"
}
